900
J95
K88
P93
203
585
718
850
B49
G34
H06
J95
K96
L01
L04
P93
W34
Y00
Z80
587
J95
K61
L01
Z99
X31
Z99
807
P93
Q62
718
C42
C95
J69
J95
K61
L01
L04
P93
Q62
R57
Y00
Z80
033
108
160
203
204
246
A44
C47
C77
G34
I93
K19
K30
K61
K63
L01
L04
L18
L54
Y00
033
160
203
204
246
658
B49
C77
H21
I47
I52
J95
K30
K38
K51
K63
L01
L04
N88
P93
Q62
X31
Y00
Z80
Z99
033
246
595
A17
F52
H06
H21
I52
J95
K61
K63
K87
L01
L04
P93
Z80
Z99
033
246
A50
G34
H06
H21
I52
K63
K80
L01
L04
L18
P93
160
204
F51
I93
K19
K63
033
104
204
958
C77
C95
H21
I52
I93
J04
J95
K63
K83
L01
L34
N88
W34
Z80
Z99
585
595
718
970
I41
I89
J95
K74
K83
L01
L04
L39
N51
N88
P93
X31
Z80
Z99
033
L01
033
203
204
595
958
B37
H21
I52
I93
K51
K63
K88
L01
L04
033
204
658
718
H06
I52
J95
K62
T05
U55
X31
958
W34
Z84
